{
    "totalTrees": 21584,
    "forests": [
        {"id": 1, "name": "Lottes Butik", "treesPlanted": 123},
        {"id": 2, "name": "Jysk Healer Service", "treesPlanted": 345},
        {"id": 3, "name": "UCL", "treesPlanted": 43221},
        {"id": 4, "name": "Some Company", "treesPlanted": 14443},
        {"id": 5, "name": "Some other company", "treesPlanted": 34},
        {"id": 6, "name": "Jysk Healer Service", "treesPlanted": 12},
        {"id": 7, "name": "Kage 4 Dig", "treesPlanted": 6},
        {"id": 8, "name": "Jysk Healer Service", "treesPlanted": 1000},
        {"id": 9, "name": "Jysk Healer Service", "treesPlanted": 436},
        {"id": 10, "name": "Swag", "treesPlanted": 436}
    ]
}